Mini Project 1 – STA 9750 Submission Material
…
Analysis

Effective management of New York City payroll is crucial for maintaining fiscal responsibility and ensuring optimal allocation of taxpayer money. The City Agency for Transportation Services (CATS) is committed to exploring policy reforms that can enhance efficiency and reduce expenditures without compromising service quality. This analysis examines three proposed policies aimed at achieving these objectives:

Policy I: Capping Salaries at Mayoral Level

Policy II: Increasing Staffing to Reduce Overtime Expenses

Policy III: Implementing Performance-Based Pay Adjustments

Policy I: Capping Salaries at the Mayoral Level

For Policy I, which caps salaries at the mayor’s level, the approach began with calculating the total mayoral salary for each fiscal year. Employees earning above this threshold were identified, and their salaries were capped at the mayor’s level. The savings were then determined by comparing the original and capped salaries, aggregated by agency and job title. For instance, agencies like the Police Department and Fire Department exhibit significant potential savings. This analysis assumes that the mayor’s salary remains fixed over the period, while limitations include potential data gaps and external economic factors that might affect projections.

# A tibble: 169 × 3
   agency_name                   total_savings total_salaries
   <chr>                                 <dbl>          <dbl>
 1 Department Of Transportation      23262379.    4408888966.
 2 Fire Department                   14619972.   22060046088.
 3 Police Department                 14315546.   60812998875.
 4 Department Of Correction          10120754.   13159615878.
 5 Dept Of Ed Pedagogical             8069875.  114209257992.
 6 Department Of Sanitation           2578045.   11549928064.
 7 Office Of The Comptroller          2449374.     854674609.
 8 Nyc Housing Authority              1595038.    8066183380.
 9 Office Of The Mayor                1401843.     720750276.
10 Dept Of Health/Mental Hygiene      1381175.    5401875298.
# ℹ 159 more rows

Results

By implementing a salary cap for employees earning more than the Mayor, the total savings to the city payroll is calculated. This policy results in a reduction of salaries for employees whose total compensation exceeds the Mayor’s salary. The agencies and job titles most impacted by this policy are those with the highest number of employees earning above the capped amount. These departments would experience the most significant financial impact, as their payroll would see the greatest reduction in total salary expenditures.

Policy II: Increasing Staffing to Reduce Overtime Expenses

Policy II suggests increasing staffing to reduce overtime expenses. The analysis focused on measuring overtime hours across agencies and job titles and calculated the number of additional employees needed to eliminate overtime. Agencies with high overtime usage, such as the Police and Fire Departments, are highlighted as key areas for this staffing increase. The projected savings are based on the replacement of overtime with regular hours, which cost less. However, this analysis assumes a direct proportional reduction in overtime with increased staffing and acknowledges that variability in overtime needs and scheduling challenges may limit these projections.

# A tibble: 169 × 2
   agency_name                    total_savings
   <chr>                                  <dbl>
 1 Police Department                2549625387.
 2 Fire Department                  1140739521.
 3 Department Of Correction          987736396.
 4 Department Of Sanitation          660917523.
 5 Hra/Dept Of Social Services       200262519.
 6 Nyc Housing Authority             170227734.
 7 Admin For Children's Svcs         154794773.
 8 Department Of Transportation      134156491.
 9 Dept Of Environment Protection     92301340.
10 Dept. Of Homeless Services         57953982.
# ℹ 159 more rows

Results

Policy II suggests increasing staffing to reduce overtime expenses, the analysis indicates that agencies with higher overtime usage typically have a disproportionate ratio of overtime hours to regular hours. By increasing staffing levels, the need for overtime could be reduced, leading to lower total payroll costs and a more efficient allocation of resources. The findings suggest that targeting agencies with the highest overtime-to-regular hours ratio would be a strategic approach to minimizing excessive overtime expenses, ultimately contributing to better taxpayer spending.

Policy III: Optimizing Employee Shifts and Job Distribution

In Policy III, the focus shifts to optimizing employee shifts and redistributing workloads to reduce the need for overtime. Improved shift scheduling and task redistribution are proposed to convert overtime hours into regular hours, thus lowering payroll expenses. This strategy identifies which agencies can achieve the greatest savings by balancing workloads more efficiently. While the analysis assumes that work demands remain constant following these changes, it also notes that unforeseen changes in workload distribution and staffing flexibility could affect the outcomes.

# A tibble: 169 × 2
   agency_name                    total_savings
   <chr>                                  <dbl>
 1 Admin For Children's Svcs        148044480. 
 2 Admin Trials And Hearings           243139. 
 3 Board Of Correction                    248. 
 4 Board Of Corrections                    57.2
 5 Board Of Election                 29917333. 
 6 Board Of Election Poll Workers           0  
 7 Borough President-Bronx             144680. 
 8 Borough President-Brooklyn           55524. 
 9 Borough President-Queens              2461. 
10 Borough President-Staten Is              0  
# ℹ 159 more rows
…
